{
  "appName": "my-app",
  "userGivenName": "my-app",
  "destNamespace": "default",
  "destServer": "https://kubernetes.default.svc",
  "srcPath": "apps/my-app/overlays/production",
  "srcRepoURL": "https://gitlab.com/gitops-book//argocd-autopilot-example.git",
  "srcTargetRevision": "",
  "labels": null,
  "annotations": null
}